{
    "types": {
        "N": "e",
        "S": "t",
        "Adj": ["e", "t"],
        "Adv": ["e", "t"]
    },
    "lexes": [{
        "expr": "controle",
        "cat": {
            "cls": "N",
            "interp": {
                "value": "\\textbf{controle}",
                "type": ["e", "t"]
            }
        },
        "indicator": "L"
    },
    {
        "expr": "-ar",
        "cat": {
            "cls": {
                "op": "apply",
                "dir": "before",
                "res": "V",
                "arg": "N"
            },
            "interp": {
                "op": "lambda",
                "var": {
                    "meta": true,
                    "value": "\\Pi",
                    "type": ["e", "t"]
                },
                "arg": {
                    "op": "apply",
                    "res": {
                        "value": "\\textbf{exercer}",
                        "type": ["e", ["e", "t"]]
                    },
                    "arg": {
                        "meta": true,
                        "value": "\\Pi",
                        "type": "e"
                    },
                    "type": ["e", "t"]
                },
                "type": ["e", ["e", "t"]]
            }
        },
        "indicator": "M"
    },
    {
        "expr": "-vel",
        "cat": {
            "cls": {
                "op": "apply",
                "dir": "before",
                "res": "Adj",
                "arg": "V"
            },
            "interp": {
                "op": "lambda",
                "var": {
                    "meta": true,
                    "value": "\\Pi",
                    "type": ["e", "t"]
                },
                "arg": {
                    "op": "apply",
                    "res": {
                        "value": "\\textbf{possibilidade de}",
                        "type": ["e", ["e", "t"]]
                    },
                    "arg": {
                        "meta": true,
                        "value": "\\Pi",
                        "type": "e"
                    },
                    "type": ["e", "t"]
                },
                "type": [["e", "t"], ["e", "t"]]
            }
        },
        "indicator": "M"
    },
    {
        "expr": "in-",
        "cat": {
            "cls": {
                "op": "apply",
                "dir": "after",
                "res": "Adj",
                "arg": "Adj"
            },
            "interp": {
                "value": "\\textbf{não}",
                "type": [["e", "t"], ["e", "t"]]
            }
        },
        "indicator": "M"
    },
    {
        "expr": "-mente",
        "cat": {
            "cls": {
                "op": "apply",
                "dir": "before",
                "res": "Adv",
                "arg": "Adj"
            },
            "interp": {
                "op": "lambda",
                "var": {
                    "meta": true,
                    "value": "\\Pi",
                    "type": ["e", "t"]
                },
                "arg": {
                    "op": "apply",
                    "res": {
                        "value": "\\textbf{maneira de}",
                        "type": [["e", "t"], ["e", "t"]]
                    },
                    "arg": {
                        "meta": true,
                        "value": "\\Pi",
                        "type": ["e", "t"]
                    },
                    "type": ["e", "t"]
                },
                "type": [["e", "t"], ["e", "t"]]
            }
        },
        "indicator": "M"
    },
    {
        "expr": "Pedro",
        "cat": {
            "cls": "N",
            "interp": {
                "value": "p",
                "type": "e"
            }
        },
        "indicator": "L"
    },
    {
        "expr": "correr",
        "cat": {
            "cls": {
                "op": "apply",
                "dir": "before",
                "res": "S",
                "arg": "N"
            },
            "interp": { "value": "C", "type": ["e", "t"] }
        },
        "indicator": "L"
    },
    {
        "expr": "-u",
        "cat": {
            "cls": {
                "op": "apply",
                "dir": "before",
                "res": {
                    "op": "apply",
                    "dir": "before",
                    "res": "S",
                    "arg": "N"
                },
                "arg": {
                    "op": "apply",
                    "dir": "before",
                    "res": "S",
                    "arg": "N"
                }
            },
            "interp": {
                "op": "lambda",
                "var": {
                    "meta": true,
                    "value": "\\Pi",
                    "type": ["e", "t"]
                },
                "arg": {
                    "op": "lambda",
                    "var": {
                        "meta": true,
                        "value": "\\upsilon",
                        "type": "e"
                    },
                    "arg": {
                        "op": "apply",
                        "res": {
                            "value": "\\textcolor{cyan}{P}",
                            "type": ["t", "t"]
                        },
                        "arg": {
                            "op": "apply",
                            "res": {
                                "meta": true,
                                "value": "\\Pi",
                                "type": ["e", "t"]
                            },
                            "arg": {
                                "meta": true,
                                "value": "\\upsilon",
                                "type": "e"
                            },
                            "type": "t"
                        },
                        "type": "t"
                    },
                    "type": ["e", "t"]
                },
                "type": [["e", "t"], ["e", "t"]]
            }
        },
        "indicator": "M"
    }
    ]
}
